…
```r
#str(activity_copy)
# The result shows that the format of the column steps is list. We first convert it to numeric.
activity_copy <- mutate(activity_copy, steps = as.numeric(steps))
write.csv(activity_copy, file = "activity_copy.csv") # save the new data
sum_mean_median_day <- group_by(activity_copy, date) %>%
    summarise(sum_steps = sum(steps),
              mean_steps = mean(steps),
              median_steps = median(steps))
sum_mean_median_day
```

```
## # A tibble: 61 x 4
##    date       sum_steps mean_steps median_steps
##    <date>         <dbl>      <dbl>        <dbl>
##  1 2012-10-01    10766.     37.4           34.1
##  2 2012-10-02      126       0.438          0  
##  3 2012-10-03    11352      39.4            0  
##  4 2012-10-04    12116      42.1            0  
##  5 2012-10-05    13294      46.2            0  
##  6 2012-10-06    15420      53.5            0  
##  7 2012-10-07    11015      38.2            0  
##  8 2012-10-08    10766.     37.4           34.1
##  9 2012-10-09    12811      44.5            0  
## 10 2012-10-10     9900      34.4            0  
## # ... with 51 more rows
```
…
